@startuml

left to right direction

'!theme plain
skinparam monochrome true
skinparam defaultFontName Fira Sans
skinparam backgroundColor transparent
'skinparam linetype ortho
''skinparam linetype polyline

rectangle Texteditor #lightgrey

file Datei.md #lightgrey

Texteditor -> Datei.md
 
note left of Datei.md
    **einfache Textdatei**
    enthält:
        //Pandoc-Markdown// + //LaTeX-Befehle//
end note

storage Pandoc #lightgrey
note left of Pandoc
    **Dokumenten-Konverter**
    ließt //Pandoc-Markdown// + //LaTeX-Befehle (Optional)//
end note

hexagon LaTeX #lightgrey
note left of LaTeX
    **Programm für Textsatz**
end note

'==========

rectangle "Ausgabeformate" as aus_form {
    file HTML as html
    file ODT as odt
    file DOCX as docx
    file EPUB as epub
    file ... as weitere
    file PDF as pdf #lightgrey
    }

Datei.md -r-> Pandoc
Pandoc -r-> LaTeX
LaTeX -r-> pdf

Pandoc ...> epub
Pandoc ...> html
Pandoc ...> odt
Pandoc ...> docx

@enduml
